{
   "input_label": {
      "x": 0,
      "y": 6.5,
      "size": 10,
      "bgcolor": "w",
      "color": "k",
      "style": "normal",
      "weight": "heavy"
   },
   "p1_label": {
      "x": 0,
      "y": 5.5,
      "size": 10,
      "bgcolor": "w",
      "color": "k",
      "style": "normal",
      "weight": "normal"
   },
   "p1_value": {
      "x": 0.32,
      "y": 5.5,
      "size": 10,
      "bgcolor": "w",
      "color": "k",
      "style": "normal",
      "weight": "normal"
   },
   "t1_label": {
      "x": 0,
      "y": 4.8,
      "size": 10,
      "bgcolor": "w",
      "color": "k",
      "style": "normal",
      "weight": "normal"
   },
   "t1_value": {
      "x": 0.32,
      "y": 4.8,
      "size": 10,
      "bgcolor": "w",
      "color": "k",
      "style": "normal",
      "weight": "normal"
   },
   "p2_label": {
      "x": 0,
      "y": 4.1,
      "size": 10,
      "bgcolor": "w",
      "color": "k",
      "style": "normal",
      "weight": "normal"
   },
   "p2_value": {
      "x": 0.32,
      "y": 4.1,
      "size": 10,
      "bgcolor": "w",
      "color": "k",
      "style": "normal",
      "weight": "normal"
   },
   "result_label": {
      "x": 0,
      "y": 0,
      "size": 11,
      "bgcolor": "w",
      "color": "k",
      "style": "normal",
      "weight": "normal"
   }
}
