{
    "entropy_v": [
        9.1555, 
        9.0248, 
        8.8998, 
        8.7803, 
        8.666, 
        8.5566, 
        8.452, 
        8.3517, 
        8.2555, 
        8.1633, 
        8.0748, 
        7.9898, 
        7.9081, 
        7.8296, 
        7.754, 
        7.6812, 
        7.6111, 
        7.5434, 
        7.4781, 
        7.4151, 
        7.3541, 
        7.2381, 
        7.1291, 
        7.0264, 
        6.9293, 
        6.8371, 
        6.7491, 
        6.665, 
        6.584, 
        6.5059, 
        6.4302, 
        6.3563, 
        6.284, 
        6.2128, 
        6.1423, 
        6.0721, 
        6.0016, 
        5.9304, 
        5.8579, 
        5.7834, 
        5.7059, 
        5.6244, 
        5.5372, 
        5.4422, 
        5.3356, 
        5.211, 
        5.0536, 
        4.8012, 
        4.407
    ], 
    "temperature": [
        0.01, 
        5, 
        10, 
        15, 
        20, 
        25, 
        30, 
        35, 
        40, 
        45, 
        50, 
        55, 
        60, 
        65, 
        70, 
        75, 
        80, 
        85, 
        90, 
        95, 
        100, 
        110, 
        120, 
        130, 
        140, 
        150, 
        160, 
        170, 
        180, 
        190, 
        200, 
        210, 
        220, 
        230, 
        240, 
        250, 
        260, 
        270, 
        280, 
        290, 
        300, 
        310, 
        320, 
        330, 
        340, 
        350, 
        360, 
        370, 
        373.95
    ], 
    "entropy_l": [
        0, 
        0.0763, 
        0.1511, 
        0.2245, 
        0.2965, 
        0.3672, 
        0.4368, 
        0.5051, 
        0.5724, 
        0.6386, 
        0.7038, 
        0.768, 
        0.8313, 
        0.8937, 
        0.9551, 
        1.0158, 
        1.0756, 
        1.1346, 
        1.1929, 
        1.2504, 
        1.3072, 
        1.4188, 
        1.5279, 
        1.6346, 
        1.7392, 
        1.8418, 
        1.9426, 
        2.0417, 
        2.1392, 
        2.2355, 
        2.3305, 
        2.4245, 
        2.5177, 
        2.6101, 
        2.702, 
        2.7935, 
        2.8849, 
        2.9765, 
        3.0685, 
        3.1612, 
        3.2552, 
        3.351, 
        3.4494, 
        3.5518, 
        3.6601, 
        3.7784, 
        3.9167, 
        4.1112, 
        4.407
    ]
}