{
    "16.0": {
        "sat_temp": 347.32, 
        "entropy_l": 3.747, 
        "entropy": [
            5.253, 
            5.628, 
            5.824, 
            5.973, 
            6.097, 
            6.207, 
            6.305, 
            6.343, 
            6.379, 
            6.414, 
            6.448, 
            6.482, 
            6.514, 
            6.546
        ], 
        "temperature": [
            347.32, 
            375, 
            400, 
            425, 
            450, 
            475, 
            500, 
            510, 
            520, 
            530, 
            540, 
            550, 
            560, 
            570
        ], 
        "enthalpy": [
            2584.9, 
            2821.8, 
            2951.26, 
            3053.25, 
            3141.6, 
            3222.0, 
            3297.1, 
            3326.1, 
            3354.6, 
            3382.6, 
            3410.3, 
            3437.1, 
            3464.8, 
            3491.6
        ]
    }, 
    "16.5": {
        "sat_temp": 349.82, 
        "entropy_l": 3.777, 
        "entropy": [
            5.22, 
            5.585, 
            5.792, 
            5.946, 
            6.073, 
            6.184, 
            6.284, 
            6.322, 
            6.358, 
            6.394, 
            6.428, 
            6.462, 
            6.495, 
            6.527
        ], 
        "temperature": [
            349.82, 
            375, 
            400, 
            425, 
            450, 
            475, 
            500, 
            510, 
            520, 
            530, 
            540, 
            550, 
            560, 
            570
        ], 
        "enthalpy": [
            2568.8, 
            2800.26, 
            2936.73, 
            3042.03, 
            3132.4, 
            3214.2, 
            3290.3, 
            3319.7, 
            3348.5, 
            3376.8, 
            3404.7, 
            3432.3, 
            3459.6, 
            3486.7
        ]
    }, 
    "18.0": {
        "sat_temp": 356.96, 
        "entropy_l": 3.876, 
        "entropy": [
            5.112, 
            5.448, 
            5.695, 
            5.865, 
            6.001, 
            6.118, 
            6.223, 
            6.262, 
            6.3, 
            6.336, 
            6.372, 
            6.407, 
            6.44, 
            6.473
        ], 
        "temperature": [
            356.96, 
            375, 
            400, 
            425, 
            450, 
            475, 
            500, 
            510, 
            520, 
            530, 
            540, 
            550, 
            560, 
            570
        ], 
        "enthalpy": [
            2513.9, 
            2727.8, 
            2890.3, 
            3007.1, 
            3104.0, 
            3190.1, 
            3269.6, 
            3300.0, 
            3329.8, 
            3359.0, 
            3387.8, 
            3416.1, 
            3444.1, 
            3471.8
        ]
    }, 
    "17.5": {
        "sat_temp": 354.64, 
        "entropy_l": 3.844, 
        "entropy": [
            5.15, 
            5.495, 
            5.727, 
            5.892, 
            6.025, 
            6.14, 
            6.243, 
            6.282, 
            6.319, 
            6.355, 
            6.39, 
            6.425, 
            6.458, 
            6.491
        ], 
        "temperature": [
            354.64, 
            375, 
            400, 
            425, 
            450, 
            475, 
            500, 
            510, 
            520, 
            530, 
            540, 
            550, 
            560, 
            570
        ], 
        "enthalpy": [
            2533.5, 
            2753.5, 
            2906.3, 
            3019.0, 
            3113.6, 
            3198.2, 
            3276.6, 
            3306.6, 
            3336.0, 
            3365.0, 
            3393.5, 
            3421.6, 
            3449.3, 
            3476.8
        ]
    }, 
    "17.0": {
        "sat_temp": 352.26, 
        "entropy_l": 3.81, 
        "entropy": [
            5.185, 
            5.541, 
            5.759, 
            5.918, 
            6.049, 
            6.162, 
            6.263, 
            6.301, 
            6.338, 
            6.374, 
            6.409, 
            6.443, 
            6.476, 
            6.509
        ], 
        "temperature": [
            352.26, 
            375, 
            400, 
            425, 
            450, 
            475, 
            500, 
            510, 
            520, 
            530, 
            540, 
            550, 
            560, 
            570
        ], 
        "enthalpy": [
            2551.6, 
            2777.5, 
            2921.8, 
            3030.6, 
            3123.1, 
            3206.2, 
            3283.5, 
            3313.2, 
            3342.3, 
            3370.9, 
            3399.1, 
            3427.0, 
            3454.5, 
            3481.8
        ]
    }
}